{
  "name": "subInsurance",
  "base": "PersistedModel",
  "idInjection": true,
  "options": {
    "validateUpsert": true
  },
  "properties": {
    "title": {
      "type": "string"
    },
    "description": {
      "type": "string"
    },
    "insuranceId": {
      "type": "number"
    }
  },
  "validations": [],
  "relations": {
    "insurance": {
      "type": "belongsTo",
      "model": "insurance",
      "foreignKey": "insuranceId",
      "options": {
        "nestRemoting": true
      }
    },
    "userInsurances": {
      "type": "hasMany",
      "model": "userInsurance",
      "foreignKey": "subInsuranceId",
      "options": {
        "nestRemoting": true
      }
    }
  },
  "acls": [],
  "methods": {}
}
